patient_id,breast_density,side,view,abn_num,abnormality_type,mass_shape,mass_margins,calc_type,calc_distribution,assessment,pathology,subtlety,scanner_type,scan_institution,width,height,bpp,resolution,x_lo,y_lo,x_hi,y_hi,od_img_path,od_crop_path,mask_path
C-0004-1,3,RIGHT,CC,1,mass,IRREGULAR,SPICULATED,,,5,MALIGNANT,5,LUMISYS,WFU,2944,4712,12,50.0,2240,720,2936,1456,/home/ines/Desktop/vision/trabajoVision/ddsm_tools/DDSM/cases/cancers/cancer_01/case0004/Volumes/od_images/C_0004_1.RIGHT_CC.tif,/home/ines/Desktop/vision/trabajoVision/ddsm_tools/DDSM/cases/cancers/cancer_01/case0004/Volumes/od_cropped_images/C_0004_1.RIGHT_CC_1.tif,/home/ines/Desktop/vision/trabajoVision/ddsm_tools/DDSM/cases/cancers/cancer_01/case0004/Volumes/mask_images/C_0004_1.RIGHT_CC_1.tif
C-0004-1,3,RIGHT,MLO,1,mass,IRREGULAR,SPICULATED,,,5,MALIGNANT,5,LUMISYS,WFU,2968,4648,12,50.0,1640,1000,2728,1992,/home/ines/Desktop/vision/trabajoVision/ddsm_tools/DDSM/cases/cancers/cancer_01/case0004/Volumes/od_images/C_0004_1.RIGHT_MLO.tif,/home/ines/Desktop/vision/trabajoVision/ddsm_tools/DDSM/cases/cancers/cancer_01/case0004/Volumes/od_cropped_images/C_0004_1.RIGHT_MLO_1.tif,/home/ines/Desktop/vision/trabajoVision/ddsm_tools/DDSM/cases/cancers/cancer_01/case0004/Volumes/mask_images/C_0004_1.RIGHT_MLO_1.tif
