patient_id,breast_density,side,view,abn_num,abnormality_type,mass_shape,mass_margins,calc_type,calc_distribution,assessment,pathology,subtlety,scanner_type,scan_institution,width,height,bpp,resolution,x_lo,y_lo,x_hi,y_hi,od_img_path,od_crop_path,mask_path
C-0003-1,2,RIGHT,CC,1,mass,IRREGULAR,SPICULATED,,,5,MALIGNANT,5,LUMISYS,WFU,3824,5928,12,50.0,1760,2832,2120,3240,/home/ines/Desktop/vision/trabajoVision/ddsm_tools/DDSM/cases/cancers/cancer_01/case0003/Volumes/od_images/C_0003_1.RIGHT_CC.tif,/home/ines/Desktop/vision/trabajoVision/ddsm_tools/DDSM/cases/cancers/cancer_01/case0003/Volumes/od_cropped_images/C_0003_1.RIGHT_CC_1.tif,/home/ines/Desktop/vision/trabajoVision/ddsm_tools/DDSM/cases/cancers/cancer_01/case0003/Volumes/mask_images/C_0003_1.RIGHT_CC_1.tif
C-0003-1,2,RIGHT,MLO,1,mass,IRREGULAR,SPICULATED,,,5,MALIGNANT,4,LUMISYS,WFU,4032,5960,12,50.0,1080,3144,1536,3824,/home/ines/Desktop/vision/trabajoVision/ddsm_tools/DDSM/cases/cancers/cancer_01/case0003/Volumes/od_images/C_0003_1.RIGHT_MLO.tif,/home/ines/Desktop/vision/trabajoVision/ddsm_tools/DDSM/cases/cancers/cancer_01/case0003/Volumes/od_cropped_images/C_0003_1.RIGHT_MLO_1.tif,/home/ines/Desktop/vision/trabajoVision/ddsm_tools/DDSM/cases/cancers/cancer_01/case0003/Volumes/mask_images/C_0003_1.RIGHT_MLO_1.tif
